^C:\USERS\ROHITH\SYNCPLICITY FOLDERS\BIOROBOTICS (SEOK CHANG RYU)\ROHITH KARTHIKEYAN\CODE\RANDOMXYSTREAM\RANDOMXYSTREAM\DEBUG\RANDOMXYSTREAM.OBJ|C:\USERS\ROHITH\SYNCPLICITY FOLDERS\BIOROBOTICS (SEOK CHANG RYU)\ROHITH KARTHIKEYAN\CODE\RANDOMXYSTREAM\RANDOMXYSTREAM\DEBUG\STDAFX.OBJ
C:\USERS\ROHITH\SYNCPLICITY FOLDERS\BIOROBOTICS (SEOK CHANG RYU)\ROHITH KARTHIKEYAN\CODE\RANDOMXYSTREAM\DEBUG\RANDOMXYSTREAM.ILK
C:\USERS\ROHITH\SYNCPLICITY FOLDERS\BIOROBOTICS (SEOK CHANG RYU)\ROHITH KARTHIKEYAN\CODE\RANDOMXYSTREAM\DEBUG\RANDOMXYSTREAM.EXE
C:\USERS\ROHITH\SYNCPLICITY FOLDERS\BIOROBOTICS (SEOK CHANG RYU)\ROHITH KARTHIKEYAN\CODE\RANDOMXYSTREAM\DEBUG\RANDOMXYSTREAM.PDB
^C:\USERS\ROHITH\SYNCPLICITY FOLDERS\BIOROBOTICS (SEOK CHANG RYU)\ROHITH KARTHIKEYAN\CODE\MAZE GENERATOR TRIALS\RANDOMXYSTREAM\RANDOMXYSTREAM\DEBUG\RANDOMXYSTREAM.OBJ|C:\USERS\ROHITH\SYNCPLICITY FOLDERS\BIOROBOTICS (SEOK CHANG RYU)\ROHITH KARTHIKEYAN\CODE\MAZE GENERATOR TRIALS\RANDOMXYSTREAM\RANDOMXYSTREAM\DEBUG\STDAFX.OBJ
C:\USERS\ROHITH\SYNCPLICITY FOLDERS\BIOROBOTICS (SEOK CHANG RYU)\ROHITH KARTHIKEYAN\CODE\MAZE GENERATOR TRIALS\RANDOMXYSTREAM\DEBUG\RANDOMXYSTREAM.ILK
C:\USERS\ROHITH\SYNCPLICITY FOLDERS\BIOROBOTICS (SEOK CHANG RYU)\ROHITH KARTHIKEYAN\CODE\MAZE GENERATOR TRIALS\RANDOMXYSTREAM\DEBUG\RANDOMXYSTREAM.EXE
C:\USERS\ROHITH\SYNCPLICITY FOLDERS\BIOROBOTICS (SEOK CHANG RYU)\ROHITH KARTHIKEYAN\CODE\MAZE GENERATOR TRIALS\RANDOMXYSTREAM\DEBUG\RANDOMXYSTREAM.PDB
